%YAML 1.1
%TAG !u! tag:unity3d.com,2011:
--- !u!1001 &100100000
Prefab:
  m_ObjectHideFlags: 1
  serializedVersion: 2
  m_Modification:
    m_TransformParent: {fileID: 0}
    m_Modifications: []
    m_RemovedComponents: []
  m_ParentPrefab: {fileID: 0}
  m_RootGameObject: {fileID: 1818390954452748}
  m_IsPrefabParent: 1
--- !u!1 &1118985713392726
GameObject:
  m_ObjectHideFlags: 0
  m_PrefabParentObject: {fileID: 0}
  m_PrefabInternal: {fileID: 100100000}
  serializedVersion: 5
  m_Component:
  - component: {fileID: 224683596085354256}
  - component: {fileID: 222077010319624608}
  - component: {fileID: 114960575872136438}
  m_Layer: 0
  m_Name: FailText
  m_TagString: Untagged
  m_Icon: {fileID: 0}
  m_NavMeshLayer: 0
  m_StaticEditorFlags: 0
  m_IsActive: 1
--- !u!1 &1818390954452748
GameObject:
  m_ObjectHideFlags: 0
  m_PrefabParentObject: {fileID: 0}
  m_PrefabInternal: {fileID: 100100000}
  serializedVersion: 5
  m_Component:
  - component: {fileID: 224275568673289112}
  - component: {fileID: 222784953872750012}
  - component: {fileID: 114691296766683156}
  - component: {fileID: 114858855707054174}
  - component: {fileID: 95138307080615164}
  - component: {fileID: 114517915871330432}
  m_Layer: 0
  m_Name: Fallback_GameOver
  m_TagString: Untagged
  m_Icon: {fileID: 0}
  m_NavMeshLayer: 0
  m_StaticEditorFlags: 0
  m_IsActive: 1
--- !u!95 &95138307080615164
Animator:
  serializedVersion: 3
  m_ObjectHideFlags: 1
  m_PrefabParentObject: {fileID: 0}
  m_PrefabInternal: {fileID: 100100000}
  m_GameObject: {fileID: 1818390954452748}
  m_Enabled: 1
  m_Avatar: {fileID: 0}
  m_Controller: {fileID: 9100000, guid: 7fc6e8e3d6b8f714c835669a4621bf65, type: 2}
  m_CullingMode: 0
  m_UpdateMode: 0
  m_ApplyRootMotion: 0
  m_LinearVelocityBlending: 0
  m_WarningMessage: 
  m_HasTransformHierarchy: 1
  m_AllowConstantClipSamplingOptimization: 1
--- !u!114 &114517915871330432
MonoBehaviour:
  m_ObjectHideFlags: 1
  m_PrefabParentObject: {fileID: 0}
  m_PrefabInternal: {fileID: 100100000}
  m_GameObject: {fileID: 1818390954452748}
  m_Enabled: 1
  m_EditorHideFlags: 0
  m_Script: {fileID: 11500000, guid: 1a8ba00dea80d994a87d9aaa52441579, type: 3}
  m_Name: 
  m_EditorClassIdentifier: 
  textFields:
    titleText:
      textContent: 
      textField: {fileID: 0}
    questionText:
      textContent: This should not happen! There is no available card left, you are
        now dead.
      textField: {fileID: 114960575872136438}
    answerLeft:
      textContent: 
      textField: {fileID: 0}
    answerRight:
      textContent: 
      textField: {fileID: 0}
  isHighPriorityCard: 0
  isDrawable: 0
  cardPropability: 0
  maxDraws: 100
  conditions: []
  Results:
    resultLeft:
      resultType: 0
      modifiers:
        valueChanges: []
        followUpCard: {fileID: 1818390954452748, guid: 68bde0613028c7048880a6da375903ea,
          type: 2}
      conditions: []
      modifiersTrue:
        valueChanges: []
        followUpCard: {fileID: 0}
      modifiersFalse:
        valueChanges: []
        followUpCard: {fileID: 0}
      randomModifiers: []
    resultRight:
      resultType: 0
      modifiers:
        valueChanges: []
        followUpCard: {fileID: 1818390954452748, guid: 68bde0613028c7048880a6da375903ea,
          type: 2}
      conditions: []
      modifiersTrue:
        valueChanges: []
        followUpCard: {fileID: 0}
      modifiersFalse:
        valueChanges: []
        followUpCard: {fileID: 0}
      randomModifiers: []
    additional_choice_0:
      resultType: 0
      modifiers:
        valueChanges: []
        followUpCard: {fileID: 0}
      conditions: []
      modifiersTrue:
        valueChanges: []
        followUpCard: {fileID: 0}
      modifiersFalse:
        valueChanges: []
        followUpCard: {fileID: 0}
      randomModifiers: []
    additional_choice_1:
      resultType: 0
      modifiers:
        valueChanges: []
        followUpCard: {fileID: 0}
      conditions: []
      modifiersTrue:
        valueChanges: []
        followUpCard: {fileID: 0}
      modifiersFalse:
        valueChanges: []
        followUpCard: {fileID: 0}
      randomModifiers: []
  changeValueOnCardDespawn: []
  OnCardSpawn:
    m_PersistentCalls:
      m_Calls: []
    m_TypeName: EventScript+mEvent, Assembly-CSharp, Version=0.0.0.0, Culture=neutral,
      PublicKeyToken=null
  OnCardDespawn:
    m_PersistentCalls:
      m_Calls: []
    m_TypeName: EventScript+mEvent, Assembly-CSharp, Version=0.0.0.0, Culture=neutral,
      PublicKeyToken=null
  OnSwipeLeft:
    m_PersistentCalls:
      m_Calls: []
    m_TypeName: EventScript+mEvent, Assembly-CSharp, Version=0.0.0.0, Culture=neutral,
      PublicKeyToken=null
  OnSwipeRight:
    m_PersistentCalls:
      m_Calls: []
    m_TypeName: EventScript+mEvent, Assembly-CSharp, Version=0.0.0.0, Culture=neutral,
      PublicKeyToken=null
  OnAdditionalChoice_0:
    m_PersistentCalls:
      m_Calls: []
    m_TypeName: EventScript+mEvent, Assembly-CSharp, Version=0.0.0.0, Culture=neutral,
      PublicKeyToken=null
  OnAdditionalChoice_1:
    m_PersistentCalls:
      m_Calls: []
    m_TypeName: EventScript+mEvent, Assembly-CSharp, Version=0.0.0.0, Culture=neutral,
      PublicKeyToken=null
--- !u!114 &114691296766683156
MonoBehaviour:
  m_ObjectHideFlags: 1
  m_PrefabParentObject: {fileID: 0}
  m_PrefabInternal: {fileID: 100100000}
  m_GameObject: {fileID: 1818390954452748}
  m_Enabled: 1
  m_EditorHideFlags: 0
  m_Script: {fileID: -765806418, guid: f5f67c52d1564df4a8936ccd202a3bd8, type: 3}
  m_Name: 
  m_EditorClassIdentifier: 
  m_Material: {fileID: 0}
  m_Color: {r: 1, g: 0.23137257, b: 0.18823531, a: 1}
  m_RaycastTarget: 0
  m_OnCullStateChanged:
    m_PersistentCalls:
      m_Calls: []
    m_TypeName: UnityEngine.UI.MaskableGraphic+CullStateChangedEvent, UnityEngine.UI,
      Version=1.0.0.0, Culture=neutral, PublicKeyToken=null
  m_Sprite: {fileID: 21300000, guid: 29e4fbffb4ff5d34a9b06b805d5ee3eb, type: 3}
  m_Type: 0
  m_PreserveAspect: 1
  m_FillCenter: 1
  m_FillMethod: 4
  m_FillAmount: 1
  m_FillClockwise: 1
  m_FillOrigin: 0
--- !u!114 &114858855707054174
MonoBehaviour:
  m_ObjectHideFlags: 1
  m_PrefabParentObject: {fileID: 0}
  m_PrefabInternal: {fileID: 100100000}
  m_GameObject: {fileID: 1818390954452748}
  m_Enabled: 1
  m_EditorHideFlags: 0
  m_Script: {fileID: -1200242548, guid: f70555f144d8491a825f0804e09c671c, type: 3}
  m_Name: 
  m_EditorClassIdentifier: 
  m_ShowMaskGraphic: 1
--- !u!114 &114960575872136438
MonoBehaviour:
  m_ObjectHideFlags: 1
  m_PrefabParentObject: {fileID: 0}
  m_PrefabInternal: {fileID: 100100000}
  m_GameObject: {fileID: 1118985713392726}
  m_Enabled: 1
  m_EditorHideFlags: 0
  m_Script: {fileID: 708705254, guid: f5f67c52d1564df4a8936ccd202a3bd8, type: 3}
  m_Name: 
  m_EditorClassIdentifier: 
  m_Material: {fileID: 0}
  m_Color: {r: 1, g: 1, b: 1, a: 1}
  m_RaycastTarget: 0
  m_OnCullStateChanged:
    m_PersistentCalls:
      m_Calls: []
    m_TypeName: UnityEngine.UI.MaskableGraphic+CullStateChangedEvent, UnityEngine.UI,
      Version=1.0.0.0, Culture=neutral, PublicKeyToken=null
  m_FontData:
    m_Font: {fileID: 12800000, guid: d8fced7b8008ae94993b6e031d41303d, type: 3}
    m_FontSize: 55
    m_FontStyle: 0
    m_BestFit: 0
    m_MinSize: 1
    m_MaxSize: 111
    m_Alignment: 4
    m_AlignByGeometry: 0
    m_RichText: 0
    m_HorizontalOverflow: 0
    m_VerticalOverflow: 0
    m_LineSpacing: 1
  m_Text: FAIL
--- !u!222 &222077010319624608
CanvasRenderer:
  m_ObjectHideFlags: 1
  m_PrefabParentObject: {fileID: 0}
  m_PrefabInternal: {fileID: 100100000}
  m_GameObject: {fileID: 1118985713392726}
--- !u!222 &222784953872750012
CanvasRenderer:
  m_ObjectHideFlags: 1
  m_PrefabParentObject: {fileID: 0}
  m_PrefabInternal: {fileID: 100100000}
  m_GameObject: {fileID: 1818390954452748}
--- !u!224 &224275568673289112
RectTransform:
  m_ObjectHideFlags: 1
  m_PrefabParentObject: {fileID: 0}
  m_PrefabInternal: {fileID: 100100000}
  m_GameObject: {fileID: 1818390954452748}
  m_LocalRotation: {x: -0, y: -0, z: -0, w: 1}
  m_LocalPosition: {x: 0, y: 0, z: 0}
  m_LocalScale: {x: 1, y: 1, z: 1}
  m_Children:
  - {fileID: 224683596085354256}
  m_Father: {fileID: 0}
  m_RootOrder: 0
  m_LocalEulerAnglesHint: {x: 0, y: 0, z: 0}
  m_AnchorMin: {x: 0.5, y: 0.5}
  m_AnchorMax: {x: 0.5, y: 0.5}
  m_AnchoredPosition: {x: 0, y: -200}
  m_SizeDelta: {x: 900, y: 1240}
  m_Pivot: {x: 0.5, y: 0.5}
--- !u!224 &224683596085354256
RectTransform:
  m_ObjectHideFlags: 1
  m_PrefabParentObject: {fileID: 0}
  m_PrefabInternal: {fileID: 100100000}
  m_GameObject: {fileID: 1118985713392726}
  m_LocalRotation: {x: -0, y: -0, z: -0, w: 1}
  m_LocalPosition: {x: 0, y: 0, z: 0}
  m_LocalScale: {x: 1, y: 1, z: 1}
  m_Children: []
  m_Father: {fileID: 224275568673289112}
  m_RootOrder: 0
  m_LocalEulerAnglesHint: {x: 0, y: 0, z: 0}
  m_AnchorMin: {x: 0.5, y: 0.5}
  m_AnchorMax: {x: 0.5, y: 0.5}
  m_AnchoredPosition: {x: 0, y: 0}
  m_SizeDelta: {x: 900, y: 900}
  m_Pivot: {x: 0.5, y: 0.5}
